ID|Category|Description|Amount|Unit|Unit Mass (g/unit)|Component Mass (g/selection)|Unit Calories (kcal/unit)|Caloric (kcal/g)|Protein (g/total gram)|Fat (g/total gram)|Carbs (g/total gram)|Combo|Total Calories (kcal)|Total Protein (g)|Total Fat (g)|Total Carbs (g)
11696|Vegetables and Vegetable Products|Tomatoes, yellow, raw|1.00|cup, chopped|139.00000000|139.0000000000|20.85000000000|0.150|1.36220000000000|0.36140000000000|4.14220000000000|1|1168.6697142857142857142857143|35.313681428571428571428571429|74.938771428571428571428571428|104.01242571428571428571428572
12585|Nut and Seed Products|Nuts, cashew nuts, dry roasted, with salt added|0.8|cup, halves and whole|137.00000000|109.600000000|786.38000000000|5.740|16.7797600000000|50.7996000000000|35.8282400000000|1|1168.6697142857142857142857143|35.313681428571428571428571429|74.938771428571428571428571428|104.01242571428571428571428572
43365|Vegetables and Vegetable Products|Tomato and vegetable juice, low sodium|0.5714285714285714285714285716|cup|242.00000000|138.28571428571428571428571433|53.24000000000|0.220|0.8297142857142857142857142860|0.1382857142857142857142857143|6.3473142857142857142857142876|1|1168.6697142857142857142857143|35.313681428571428571428571429|74.938771428571428571428571428|104.01242571428571428571428572
11844|Vegetables and Vegetable Products|Potatoes, scalloped, home-prepared with margarine|1.5|cup|245.00000000|367.500000000|215.60000000000|0.880|10.5472500000000|13.5240000000000|39.6165000000000|1|1168.6697142857142857142857143|35.313681428571428571428571429|74.938771428571428571428571428|104.01242571428571428571428572
11286|Vegetables and Vegetable Products|Onions, yellow, sauteed|1|cup chopped|87.00000000|87.00000000|107.01000000000|1.230|0.826500000000|9.39600000000|6.838200000000|1|1168.6697142857142857142857143|35.313681428571428571428571429|74.938771428571428571428571428|104.01242571428571428571428572
11161|Vegetables and Vegetable Products|Collards, raw|0.5714285714285714285714285716|cup, chopped|36.00000000|20.571428571428571428571428578|11.52000000000|0.320|0.6212571428571428571428571430|0.1254857142857142857142857143|1.1149714285714285714285714289|1|1168.6697142857142857142857143|35.313681428571428571428571429|74.938771428571428571428571428|104.01242571428571428571428572
11138|Vegetables and Vegetable Products|Cauliflower, frozen, cooked, boiled, drained, without salt|1.5|cup (1" pieces)|180.00000000|270.000000000|34.20000000000|0.190|4.3470000000000|0.5940000000000|10.1250000000000|1|1168.6697142857142857142857143|35.313681428571428571428571429|74.938771428571428571428571428|104.01242571428571428571428572
11989|Vegetables and Vegetable Products|Mushrooms, straw, canned, drained solids|0.6666666666666666666666666668|cup|182.00000000|121.33333333333333333333333336|58.24000000000|0.320|4.6470666666666666666666666676|0.8250666666666666666666666668|5.6298666666666666666666666678|2|965.3166666666666666666666666|35.052916666666666666666666667|39.155516666666666666666666667|130.25276666666666666666666666
11826|Vegetables and Vegetable Products|Pigeonpeas, immature seeds, cooked, boiled, drained, with salt|1|cup|153.00000000|153.00000000|169.83000000000|1.110|9.118800000000|2.080800000000|29.819700000000|2|965.3166666666666666666666666|35.052916666666666666666666667|39.155516666666666666666666667|130.25276666666666666666666666
11192|Vegetables and Vegetable Products|Cowpeas (blackeyes), immature seeds, cooked, boiled, drained, without salt|1.3333333333333333333333333332|cup|165.00000000|219.99999999999999999999999998|160.05000000000|0.970|6.9739999999999999999999999993|0.8359999999999999999999999999|44.703999999999999999999999996|2|965.3166666666666666666666666|35.052916666666666666666666667|39.155516666666666666666666667|130.25276666666666666666666666
11378|Vegetables and Vegetable Products|Potatoes, mashed, dehydrated, flakes without milk, dry form|0.8|cup|60.00000000|48.000000000|212.40000000000|3.540|4.0032000000000|0.1968000000000|38.9616000000000|2|965.3166666666666666666666666|35.052916666666666666666666667|39.155516666666666666666666667|130.25276666666666666666666666
11698|Vegetables and Vegetable Products|Chrysanthemum leaves, raw|1.00|cup, chopped|51.00000000|51.0000000000|12.24000000000|0.240|1.71360000000000|0.28560000000000|1.53510000000000|2|965.3166666666666666666666666|35.052916666666666666666666667|39.155516666666666666666666667|130.25276666666666666666666666
12120|Nut and Seed Products|Nuts, hazelnuts or filberts|0.5|cup, chopped|115.00000000|57.500000000|722.20000000000|6.280|8.5962500000000|34.9312500000000|9.602500000000|2|965.3166666666666666666666666|35.052916666666666666666666667|39.155516666666666666666666667|130.25276666666666666666666666
11918|Vegetables and Vegetable Products|Peppers, sweet, red, frozen, chopped, boiled, drained, without salt|0.50|cup, chopped or strips|135.00000000|67.5000000000|21.60000000000|0.160|0.64125000000000|0.12150000000000|2.23425000000000|3|690.2925000000000|23.67205000000000|32.83807500000000|75.79217500000000
16125|Legumes and Legume Products|Soy sauce made from hydrolyzed vegetable protein|1.00|cup|14.50000000|14.5000000000|8.70000000000|0.600|1.0150000000000|0.07395000000000|1.13680000000000|3|690.2925000000000|23.67205000000000|32.83807500000000|75.79217500000000
16244|Legumes and Legume Products|SILK Unsweetened, soymilk|0.75|cup|243.00000000|182.2500000000|80.19000000000|0.330|5.24880000000000|3.00712500000000|3.00712500000000|3|690.2925000000000|23.67205000000000|32.83807500000000|75.79217500000000
16137|Legumes and Legume Products|Hummus, home prepared|23|tablespoon|15.00000000|345.00000000|26.55000000000|1.770|16.767000000000|29.635500000000|69.414000000000|3|690.2925000000000|23.67205000000000|32.83807500000000|75.79217500000000
11381|Vegetables and Vegetable Products|Potatoes, mashed, dehydrated, prepared from granules without milk, whole milk and butter added|2|cup|210.00000000|420.00000000|226.80000000000|1.080|8.610000000000|20.832000000000|60.312000000000|4|551.37714285714285714285714288|12.156571428571428571428571429|25.494971428571428571428571430|72.080200000000000000000000001
11846|Vegetables and Vegetable Products|Pumpkin, canned, with salt|0.4|cup|245.00000000|98.000000000|83.30000000000|0.340|1.078000000000|0.2744000000000|7.9282000000000|4|551.37714285714285714285714288|12.156571428571428571428571429|25.494971428571428571428571430|72.080200000000000000000000001
43125|Legumes and Legume Products|Beans, liquid from stewed kidney beans|0.5714285714285714285714285716|cup|240.00000000|137.14285714285714285714285718|112.80000000000|0.470|2.4685714285714285714285714293|4.3885714285714285714285714299|3.8400000000000000000000000012|4|551.37714285714285714285714288|12.156571428571428571428571429|25.494971428571428571428571430|72.080200000000000000000000001
11602|Vegetables and Vegetable Products|Yam, cooked, boiled, drained, or baked, without salt|0.75|cup, cubes|34.00000000|25.5000000000|39.44000000000|1.160|0.37995000000000|0.03570000000000|7.00740000000000|5|1387.4470000000000000000000000|39.143405000000000000000000000|80.14006500000000000000000000|145.39810000000000000000000000
11546|Vegetables and Vegetable Products|Tomato products, canned, paste, without salt added (Includes foods for USDA's Food Distribution Program)|4|cup|16.50000000|66.00000000|13.53000000000|0.820|2.851200000000|0.310200000000|12.480600000000|5|1387.4470000000000000000000000|39.143405000000000000000000000|80.14006500000000000000000000|145.39810000000000000000000000
11046|Vegetables and Vegetable Products|Beans, navy, mature seeds, sprouted, raw|0.25|cup|104.00000000|26.0000000000|69.68000000000|0.670|1.59900000000000|0.1820000000000|3.39300000000000|5|1387.4470000000000000000000000|39.143405000000000000000000000|80.14006500000000000000000000|145.39810000000000000000000000
11549|Vegetables and Vegetable Products|Tomato products, canned, sauce|0.2857142857142857142857142858|cup|245.00000000|70.000000000000000000000000021|58.80000000000|0.240|0.8400000000000000000000000003|0.2100000000000000000000000001|3.7170000000000000000000000011|5|1387.4470000000000000000000000|39.143405000000000000000000000|80.14006500000000000000000000|145.39810000000000000000000000
11795|Vegetables and Vegetable Products|Leeks, (bulb and lower leaf-portion), cooked, boiled, drained, with salt|0.50|cup, chopped|6.50000000|3.2500000000|2.01500000000|0.310|0.02632500000000|0.0065000000000|0.24765000000000|5|1387.4470000000000000000000000|39.143405000000000000000000000|80.14006500000000000000000000|145.39810000000000000000000000
12109|Nut and Seed Products|Nuts, coconut meat, dried (desiccated), sweetened, flaked, packaged|0.8|cup|85.00000000|68.000000000|387.60000000000|4.560|2.1284000000000|19.0332000000000|35.2580000000000|5|1387.4470000000000000000000000|39.143405000000000000000000000|80.14006500000000000000000000|145.39810000000000000000000000
11565|Vegetables and Vegetable Products|Turnips, cooked, boiled, drained, without salt|0.8|cup, mashed|230.00000000|184.000000000|50.60000000000|0.220|1.3064000000000|0.1472000000000|9.3104000000000|5|1387.4470000000000000000000000|39.143405000000000000000000000|80.14006500000000000000000000|145.39810000000000000000000000
11881|Vegetables and Vegetable Products|Taro, tahitian, cooked, with salt|0.4|cup slices|137.00000000|54.800000000|60.28000000000|0.440|2.2796800000000|0.3726400000000|3.7538000000000|5|1387.4470000000000000000000000|39.143405000000000000000000000|80.14006500000000000000000000|145.39810000000000000000000000
12586|Nut and Seed Products|Nuts, cashew nuts, oil roasted, with salt added|0.75|cup, halves and pieces|129.00000000|96.7500000000|749.49000000000|5.810|16.29270000000000|46.21747500000000|29.17980000000000|5|1387.4470000000000000000000000|39.143405000000000000000000000|80.14006500000000000000000000|145.39810000000000000000000000
11120|Vegetables and Vegetable Products|Cabbage, chinese (pe-tsai), cooked, boiled, drained, without salt|0.5000000000000000000000000001|cup, shredded|119.00000000|59.500000000000000000000000012|16.66000000000|0.140|0.8925000000000000000000000002|0.1011500000000000000000000000|1.4339500000000000000000000003|5|1387.4470000000000000000000000|39.143405000000000000000000000|80.14006500000000000000000000|145.39810000000000000000000000
11844|Vegetables and Vegetable Products|Potatoes, scalloped, home-prepared with margarine|1.5|cup|245.00000000|367.500000000|215.60000000000|0.880|10.5472500000000|13.5240000000000|39.6165000000000|5|1387.4470000000000000000000000|39.143405000000000000000000000|80.14006500000000000000000000|145.39810000000000000000000000
