ID|Category|Description|Amount|Unit|Unit Mass (g/unit)|Component Mass (g/selection)|Unit Calories (kcal/unit)|Caloric (kcal/g)|Protein (g/total gram)|Fat (g/total gram)|Carbs (g/total gram)|Combo|Total Calories (kcal)|Total Protein (g)|Total Fat (g)|Total Carbs (g)
11492|Vegetables and Vegetable Products|Squash, winter, spaghetti, raw|4.0|cup, cubes|101.00000000|404.000000000|31.31000000000|2.5856000000000|2.3028000000000|27.9164000000000|1|752.10323809523809523809523808|25.968762857142857142857142858|38.208864761904761904761904762|88.79457142857142857142857143
11564|Vegetables and Vegetable Products|Turnips, raw|1.00|cup, cubes|32.50000000|32.5000000000|9.10000000000|0.2925000000000|0.0325000000000|2.08975000000000|1|752.10323809523809523809523808|25.968762857142857142857142858|38.208864761904761904761904762|88.79457142857142857142857143
16345|Legumes and Legume Products|Beans, pinto, mature seeds, canned, drained solids, rinsed in tap water|0.2|cup|169.00000000|33.800000000|197.73000000000|2.3795200000000|0.3278600000000|7.0202600000000|1|752.10323809523809523809523808|25.968762857142857142857142858|38.208864761904761904761904762|88.79457142857142857142857143
12085|Nut and Seed Products|Nuts, cashew nuts, dry roasted, without salt added|11|tbsp|8.60000000|94.60000000|49.36400000000|14.483260000000|43.847100000000|30.924740000000|1|752.10323809523809523809523808|25.968762857142857142857142858|38.208864761904761904761904762|88.79457142857142857142857143
11735|Vegetables and Vegetable Products|Beets, canned, no salt added, solids and liquids|0.3333333333333333333333333334|cup|246.00000000|82.00000000000000000000000002|68.88000000000|0.6560000000000000000000000001|0.0574000000000000000000000000|5.3874000000000000000000000011|1|752.10323809523809523809523808|25.968762857142857142857142858|38.208864761904761904761904762|88.79457142857142857142857143
11252|Vegetables and Vegetable Products|Lettuce, iceberg (includes crisphead types), raw|0.50|cup, chopped (1/2" pieces, loosely packed)|57.00000000|28.5000000000|7.98000000000|0.2565000000000|0.03990000000000|0.84645000000000|1|752.10323809523809523809523808|25.968762857142857142857142858|38.208864761904761904761904762|88.79457142857142857142857143
11416|Vegetables and Vegetable Products|Pumpkin flowers, raw|4.5000000000000000000000000009|cup|33.00000000|148.50000000000000000000000003|4.95000000000|1.5295500000000000000000000003|0.1039500000000000000000000000|4.8708000000000000000000000010|1|752.10323809523809523809523808|25.968762857142857142857142858|38.208864761904761904761904762|88.79457142857142857142857143
11864|Vegetables and Vegetable Products|Squash, winter, acorn, cooked, baked, with salt|0.6666666666666666666666666666|cup, cubes|205.00000000|136.66666666666666666666666665|114.80000000000|1.5306666666666666666666666665|0.1913333333333333333333333333|19.925999999999999999999999998|1|752.10323809523809523809523808|25.968762857142857142857142858|38.208864761904761904761904762|88.79457142857142857142857143
11986|Vegetables and Vegetable Products|Malabar spinach, cooked|1.4|cup|44.00000000|61.600000000|10.12000000000|1.8356800000000|0.4804800000000|1.6693600000000|1|752.10323809523809523809523808|25.968762857142857142857142858|38.208864761904761904761904762|88.79457142857142857142857143
11467|Vegetables and Vegetable Products|Squash, summer, crookneck and straightneck, raw|0.7142857142857142857142857145|cup sliced|127.00000000|90.71428571428571428571428574|24.13000000000|0.9162142857142857142857142860|0.2449285714285714285714285715|3.5197142857142857142857142868|1|752.10323809523809523809523808|25.968762857142857142857142858|38.208864761904761904761904762|88.79457142857142857142857143
11118|Vegetables and Vegetable Products|Cabbage, kimchi|4|cup|150.00000000|600.00000000|22.50000000000|6.60000000000|3.00000000000|14.40000000000|2|750.04726190476190476190476190|25.871338095238095238095238094|35.714136904761904761904761904|89.82338333333333333333333333
12154|Nut and Seed Products|Nuts, walnuts, black, dried|0.25|cup, chopped|125.00000000|31.2500000000|773.75000000000|7.51875000000000|18.54062500000000|2.99375000000000|2|750.04726190476190476190476190|25.871338095238095238095238094|35.714136904761904761904761904|89.82338333333333333333333333
16079|Legumes and Legume Products|Mothbeans, mature seeds, cooked, boiled, without salt|2.0|cup|177.00000000|354.000000000|207.09000000000|27.6474000000000|1.9470000000000|74.1984000000000|2|750.04726190476190476190476190|25.871338095238095238095238094|35.714136904761904761904761904|89.82338333333333333333333333
11381|Vegetables and Vegetable Products|Potatoes, mashed, dehydrated, prepared from granules without milk, whole milk and butter added|0.5000000000000000000000000001|cup|210.00000000|105.00000000000000000000000002|226.80000000000|2.1525000000000000000000000004|5.2080000000000000000000000010|15.078000000000000000000000003|2|750.04726190476190476190476190|25.871338095238095238095238094|35.714136904761904761904761904|89.82338333333333333333333333
11934|Vegetables and Vegetable Products|Potatoes, mashed, home-prepared, whole milk and butter added|0.1428571428571428571428571429|cup|210.00000000|30.000000000000000000000000009|237.30000000000|0.5580000000000000000000000002|1.2660000000000000000000000004|5.0430000000000000000000000015|2|750.04726190476190476190476190|25.871338095238095238095238094|35.714136904761904761904761904|89.82338333333333333333333333
11523|Vegetables and Vegetable Products|Taro shoots, cooked, without salt|2|cup slices|140.00000000|280.00000000|19.60000000000|2.044000000000|0.224000000000|8.96000000000|2|750.04726190476190476190476190|25.871338095238095238095238094|35.714136904761904761904761904|89.82338333333333333333333333
11418|Vegetables and Vegetable Products|Pumpkin leaves, raw|7.3333333333333333333333333326|cup|39.00000000|285.99999999999999999999999997|7.41000000000|9.008999999999999999999999999|1.1439999999999999999999999999|6.6637999999999999999999999993|2|750.04726190476190476190476190|25.871338095238095238095238094|35.714136904761904761904761904|89.82338333333333333333333333
12119|Nut and Seed Products|Nuts, coconut water (liquid from coconuts)|0.5000000000000000000000000001|cup|240.00000000|120.00000000000000000000000002|45.60000000000|0.8640000000000000000000000002|0.2400000000000000000000000000|4.4520000000000000000000000009|2|750.04726190476190476190476190|25.871338095238095238095238094|35.714136904761904761904761904|89.82338333333333333333333333
11478|Vegetables and Vegetable Products|Squash, summer, zucchini, includes skin, cooked, boiled, drained, without salt|1|cup, sliced|180.00000000|180.00000000|27.00000000000|2.052000000000|0.648000000000|4.842000000000|2|750.04726190476190476190476190|25.871338095238095238095238094|35.714136904761904761904761904|89.82338333333333333333333333
11080|Vegetables and Vegetable Products|Beets, raw|1.0|cup|136.00000000|136.000000000|58.48000000000|2.1896000000000|0.2312000000000|13.0016000000000|2|750.04726190476190476190476190|25.871338095238095238095238094|35.714136904761904761904761904|89.82338333333333333333333333
11937|Vegetables and Vegetable Products|Pickles, cucumber, dill or kosher dill|0.9999999999999999999999999999|cup (about 23 slices)|155.00000000|154.99999999999999999999999998|18.60000000000|0.7749999999999999999999999999|0.4650000000000000000000000000|3.7354999999999999999999999996|2|750.04726190476190476190476190|25.871338095238095238095238094|35.714136904761904761904761904|89.82338333333333333333333333
11197|Vegetables and Vegetable Products|Cowpeas, young pods with seeds, raw|0.1428571428571428571428571429|cup|94.00000000|13.428571428571428571428571433|41.36000000000|0.4431428571428571428571428573|0.0402857142857142857142857143|1.2757142857142857142857142861|3|752.38985714285714285714285719|24.401870000000000000000000002|38.948210000000000000000000003|89.90193428571428571428571429
11134|Vegetables and Vegetable Products|Cassava, raw|1|cup|206.00000000|206.00000000|329.60000000000|2.801600000000|0.576800000000|78.403600000000|3|752.38985714285714285714285719|24.401870000000000000000000002|38.948210000000000000000000003|89.90193428571428571428571429
11471|Vegetables and Vegetable Products|Squash, summer, crookneck and straightneck, canned, drained, solid, without salt|0.4285714285714285714285714287|cup, diced|210.00000000|90.00000000000000000000000003|27.30000000000|0.5490000000000000000000000002|0.0630000000000000000000000000|2.6640000000000000000000000008|3|752.38985714285714285714285719|24.401870000000000000000000002|38.948210000000000000000000003|89.90193428571428571428571429
11468|Vegetables and Vegetable Products|Squash, summer, crookneck and straightneck, cooked, boiled, drained, without salt|1.5|cup, sliced|180.00000000|270.000000000|34.20000000000|2.8080000000000|1.0530000000000|10.2330000000000|3|752.38985714285714285714285719|24.401870000000000000000000002|38.948210000000000000000000003|89.90193428571428571428571429
12220|Nut and Seed Products|Seeds, flaxseed|0.6666666666666666666666666666|cup, whole|168.00000000|111.99999999999999999999999999|897.12000000000|20.484799999999999999999999998|47.219199999999999999999999995|32.345599999999999999999999997|3|752.38985714285714285714285719|24.401870000000000000000000002|38.948210000000000000000000003|89.90193428571428571428571429
12040|Nut and Seed Products|Seeds, sunflower seed butter, without salt|8|tbsp|16.00000000|128.00000000|98.72000000000|22.118400000000|70.65600000000|29.849600000000|3|752.38985714285714285714285719|24.401870000000000000000000002|38.948210000000000000000000003|89.90193428571428571428571429
16225|Legumes and Legume Products|Soymilk, original and vanilla, light, with added calcium, vitamins A and D|0.4285714285714285714285714287|cup|243.00000000|104.14285714285714285714285717|72.90000000000|2.4786000000000000000000000007|0.8019000000000000000000000002|3.6554142857142857142857142868|3|752.38985714285714285714285719|24.401870000000000000000000002|38.948210000000000000000000003|89.90193428571428571428571429
11527|Vegetables and Vegetable Products|Tomatoes, green, raw|4|cup|180.00000000|720.00000000|41.40000000000|8.64000000000|1.44000000000|36.72000000000|3|752.38985714285714285714285719|24.401870000000000000000000002|38.948210000000000000000000003|89.90193428571428571428571429
11729|Vegetables and Vegetable Products|Beans, snap, green, canned, no salt added, drained solids|0.2857142857142857142857142858|cup|153.00000000|43.714285714285714285714285727|33.66000000000|0.4896000000000000000000000001|0.2010857142857142857142857143|1.8884571428571428571428571434|3|752.38985714285714285714285719|24.401870000000000000000000002|38.948210000000000000000000003|89.90193428571428571428571429
11113|Vegetables and Vegetable Products|Cabbage, red, cooked, boiled, drained, without salt|4.8|cup, shredded|37.50000000|180.000000000|10.87500000000|2.7180000000000|0.1620000000000|12.4920000000000|3|752.38985714285714285714285719|24.401870000000000000000000002|38.948210000000000000000000003|89.90193428571428571428571429
16139|Legumes and Legume Products|Soymilk, original and vanilla, with added calcium, vitamins A and D|13|fl oz|30.60000000|397.80000000|13.15800000000|10.34280000000|5.847660000000|19.571760000000|4|820.0246190476190476190476191|24.398885714285714285714285716|36.817022857142857142857142858|88.16533952380952380952380953
11414|Vegetables and Vegetable Products|Potato salad, home-prepared|0.4|cup|250.00000000|100.000000000|357.50000000000|2.6800000000000|8.200000000000|11.1700000000000|4|820.0246190476190476190476191|24.398885714285714285714285716|36.817022857142857142857142858|88.16533952380952380952380953
11435|Vegetables and Vegetable Products|Rutabagas, raw|0.25|cup, cubes|140.00000000|35.0000000000|51.80000000000|0.37800000000000|0.05600000000000|3.01700000000000|4|820.0246190476190476190476191|24.398885714285714285714285716|36.817022857142857142857142858|88.16533952380952380952380953
16136|Legumes and Legume Products|Winged beans, mature seeds, cooked, boiled, without salt|0.3333333333333333333333333333|cup|172.00000000|57.333333333333333333333333328|252.84000000000|6.0887999999999999999999999994|3.3482666666666666666666666663|8.565599999999999999999999999|4|820.0246190476190476190476191|24.398885714285714285714285716|36.817022857142857142857142858|88.16533952380952380952380953
11354|Vegetables and Vegetable Products|Potatoes, white, flesh and skin, raw|1.6666666666666666666666666665|cup, diced|37.50000000|62.499999999999999999999999994|25.87500000000|1.0499999999999999999999999999|0.0625000000000000000000000000|9.818749999999999999999999999|4|820.0246190476190476190476191|24.398885714285714285714285716|36.817022857142857142857142858|88.16533952380952380952380953
11431|Vegetables and Vegetable Products|Radishes, oriental, cooked, boiled, drained, without salt|2|cup, sliced|147.00000000|294.00000000|24.99000000000|1.969800000000|0.705600000000|10.084200000000|4|820.0246190476190476190476191|24.398885714285714285714285716|36.817022857142857142857142858|88.16533952380952380952380953
11559|Vegetables and Vegetable Products|Tomato products, canned, sauce, with tomato tidbits|0.25|cup|244.00000000|61.0000000000|78.08000000000|0.80520000000000|0.23790000000000|4.32490000000000|4|820.0246190476190476190476191|24.398885714285714285714285716|36.817022857142857142857142858|88.16533952380952380952380953
11933|Vegetables and Vegetable Products|Beans, snap, yellow, canned, no salt added, drained solids|0.75|cup|153.00000000|114.7500000000|30.60000000000|1.31962500000000|0.1147500000000|5.1637500000000|4|820.0246190476190476190476191|24.398885714285714285714285716|36.817022857142857142857142858|88.16533952380952380952380953
11087|Vegetables and Vegetable Products|Beet greens, cooked, boiled, drained, without salt|0.8571428571428571428571428574|cup (1" pieces)|36.00000000|30.857142857142857142857142866|9.72000000000|0.7930285714285714285714285717|0.0617142857142857142857142857|1.6848000000000000000000000005|4|820.0246190476190476190476191|24.398885714285714285714285716|36.817022857142857142857142858|88.16533952380952380952380953
12063|Nut and Seed Products|Nuts, almonds, dry roasted, without salt added|0.3333333333333333333333333333|cup whole kernels|138.00000000|45.999999999999999999999999995|825.24000000000|9.641599999999999999999999999|24.168399999999999999999999998|9.664599999999999999999999999|5|750.40428571428571428571428573|25.929000000000000000000000001|38.217228571428571428571428572|89.82682857142857142857142858
11897|Vegetables and Vegetable Products|Yam, cooked, boiled, drained, or baked, with salt|0.7142857142857142857142857145|cup, cubes|136.00000000|97.14285714285714285714285717|155.04000000000|1.4474285714285714285714285719|0.1360000000000000000000000000|26.218857142857142857142857151|5|750.40428571428571428571428573|25.929000000000000000000000001|38.217228571428571428571428572|89.82682857142857142857142858
11861|Vegetables and Vegetable Products|Squash, summer, zucchini, includes skin, cooked, boiled, drained, with salt|3.50|cup slices|45.00000000|157.5000000000|6.75000000000|1.79550000000000|0.56700000000000|4.23675000000000|5|750.40428571428571428571428573|25.929000000000000000000000001|38.217228571428571428571428572|89.82682857142857142857142858
16044|Legumes and Legume Products|Beans, pinto, mature seeds, canned, solids and liquids|3|cup|240.00000000|720.00000000|196.80000000000|33.12000000000|4.032000000000|109.296000000000|5|750.40428571428571428571428573|25.929000000000000000000000001|38.217228571428571428571428572|89.82682857142857142857142858
11439|Vegetables and Vegetable Products|Sauerkraut, canned, solids and liquids|0.2857142857142857142857142858|cup, undrained|236.00000000|67.428571428571428571428571449|44.84000000000|0.6136000000000000000000000002|0.0944000000000000000000000000|2.8859428571428571428571428580|5|750.40428571428571428571428573|25.929000000000000000000000001|38.217228571428571428571428572|89.82682857142857142857142858
11564|Vegetables and Vegetable Products|Turnips, raw|1.00|cup, cubes|32.50000000|32.5000000000|9.10000000000|0.2925000000000|0.0325000000000|2.08975000000000|5|750.40428571428571428571428573|25.929000000000000000000000001|38.217228571428571428571428572|89.82682857142857142857142858
11632|Vegetables and Vegetable Products|Peppers, jalapeno, canned, solids and liquids|1.00|cup, chopped|136.00000000|136.0000000000|36.72000000000|1.25120000000000|1.27840000000000|6.44640000000000|6|750.46146428571428571428571427|24.265215595238095238095238096|36.979647976190476190476190475|89.80866892857142857142857143
16337|Legumes and Legume Products|Beans, kidney, red, mature seeds, canned, solids and liquid, low sodium|0.2857142857142857142857142858|cup|256.00000000|73.142857142857142857142857165|207.36000000000|3.8180571428571428571428571440|0.2633142857142857142857142858|10.847085714285714285714285718|6|750.46146428571428571428571427|24.265215595238095238095238096|36.979647976190476190476190475|89.80866892857142857142857143
12061|Nut and Seed Products|Nuts, almonds|0.2857142857142857142857142858|cup, slivered|108.00000000|30.857142857142857142857142866|625.32000000000|6.5262857142857142857142857162|15.406971428571428571428571433|6.6497142857142857142857142877|6|750.46146428571428571428571427|24.265215595238095238095238096|36.979647976190476190476190475|89.80866892857142857142857143
11371|Vegetables and Vegetable Products|Potatoes, mashed, home-prepared, whole milk and margarine added|1|cup|210.00000000|210.00000000|237.30000000000|4.116000000000|8.82000000000|35.574000000000|6|750.46146428571428571428571427|24.265215595238095238095238096|36.979647976190476190476190475|89.80866892857142857142857143
11352|Vegetables and Vegetable Products|Potatoes, flesh and skin, raw|2.6666666666666666666666666664|cup, diced|37.50000000|99.99999999999999999999999999|28.87500000000|2.0499999999999999999999999998|0.0900000000000000000000000000|17.489999999999999999999999998|6|750.46146428571428571428571427|24.265215595238095238095238096|36.979647976190476190476190475|89.80866892857142857142857143
11122|Vegetables and Vegetable Products|Cardoon, raw|0.9999999999999999999999999999|cup, shredded|178.00000000|177.99999999999999999999999998|30.26000000000|1.2459999999999999999999999999|0.1780000000000000000000000000|7.2445999999999999999999999993|6|750.46146428571428571428571427|24.265215595238095238095238096|36.979647976190476190476190475|89.80866892857142857142857143
11796|Vegetables and Vegetable Products|Lotus root, cooked, boiled, drained, with salt|1.5000000000000000000000000003|cup|30.00000000|45.000000000000000000000000009|19.80000000000|0.7110000000000000000000000001|0.0315000000000000000000000000|7.2090000000000000000000000014|6|750.46146428571428571428571427|24.265215595238095238095238096|36.979647976190476190476190475|89.80866892857142857142857143
11250|Vegetables and Vegetable Products|Lettuce, butterhead (includes boston and bibb types), raw|2.6666666666666666666666666664|cup, shredded or chopped|55.00000000|146.66666666666666666666666665|7.15000000000|1.9799999999999999999999999998|0.3226666666666666666666666666|3.2706666666666666666666666663|6|750.46146428571428571428571427|24.265215595238095238095238096|36.979647976190476190476190475|89.80866892857142857142857143
11745|Vegetables and Vegetable Products|Brussels sprouts, cooked, boiled, drained, with salt|3.25|cup|39.00000000|126.7500000000|14.04000000000|3.23212500000000|0.6337500000000|8.9992500000000|6|750.46146428571428571428571427|24.265215595238095238095238096|36.979647976190476190476190475|89.80866892857142857142857143
11119|Vegetables and Vegetable Products|Cabbage, chinese (pe-tsai), raw|1.7142857142857142857142857148|cup, shredded|76.00000000|130.28571428571428571428571432|12.16000000000|1.5634285714285714285714285719|0.2605714285714285714285714286|4.2082285714285714285714285727|7|752.30085714285714285714285720|24.964792857142857142857142861|38.972764285714285714285714286|89.33677714285714285714285715
11823|Vegetables and Vegetable Products|Peppers, sweet, red, cooked, boiled, drained, without salt|3.0|cup, strips|135.00000000|405.000000000|37.80000000000|3.7260000000000|0.810000000000|27.135000000000|7|752.30085714285714285714285720|24.964792857142857142857142861|38.972764285714285714285714286|89.33677714285714285714285715
16017|Legumes and Legume Products|Beans, black turtle, mature seeds, cooked, boiled, without salt|0.75|cup|185.00000000|138.7500000000|240.50000000000|11.34975000000000|0.48562500000000|33.78562500000000|7|752.30085714285714285714285720|24.964792857142857142857142861|38.972764285714285714285714286|89.33677714285714285714285715
11260|Vegetables and Vegetable Products|Mushrooms, white, raw|1.0000000000000000000000000002|cup, whole|96.00000000|96.00000000000000000000000002|21.12000000000|2.9664000000000000000000000006|0.3264000000000000000000000001|3.1296000000000000000000000006|7|752.30085714285714285714285720|24.964792857142857142857142861|38.972764285714285714285714286|89.33677714285714285714285715
12117|Nut and Seed Products|Nuts, coconut milk, raw (liquid expressed from grated meat and water)|0.9999999999999999999999999999|cup|240.00000000|239.99999999999999999999999998|552.00000000000|5.4959999999999999999999999995|57.215999999999999999999999994|13.295999999999999999999999999|7|752.30085714285714285714285720|24.964792857142857142857142861|38.972764285714285714285714286|89.33677714285714285714285715
11904|Vegetables and Vegetable Products|Corn, sweet, white, canned, whole kernel, no salt added, solids and liquids|0.50|cup|256.00000000|128.0000000000|163.84000000000|2.49600000000000|0.6400000000000|19.72480000000000|7|752.30085714285714285714285720|24.964792857142857142857142861|38.972764285714285714285714286|89.33677714285714285714285715
11843|Vegetables and Vegetable Products|Potatoes, au gratin, home-prepared from recipe using margarine|0.3333333333333333333333333333|cup|245.00000000|81.66666666666666666666666666|323.40000000000|4.1323333333333333333333333329|6.1984999999999999999999999994|9.203833333333333333333333332|7|752.30085714285714285714285720|24.964792857142857142857142861|38.972764285714285714285714286|89.33677714285714285714285715
11527|Vegetables and Vegetable Products|Tomatoes, green, raw|4|cup|180.00000000|720.00000000|41.40000000000|8.64000000000|1.44000000000|36.72000000000|7|752.30085714285714285714285720|24.964792857142857142857142861|38.972764285714285714285714286|89.33677714285714285714285715
11891|Vegetables and Vegetable Products|Turnip greens, cooked, boiled, drained, with salt|1|cup, chopped|144.00000000|144.00000000|28.80000000000|1.641600000000|0.331200000000|6.278400000000|7|752.30085714285714285714285720|24.964792857142857142857142861|38.972764285714285714285714286|89.33677714285714285714285715
16222|Legumes and Legume Products|Soymilk (all flavors), unsweetened, with added calcium, vitamins A and D|0.50|cup|243.00000000|121.5000000000|80.19000000000|3.47490000000000|1.95615000000000|2.11410000000000|7|752.30085714285714285714285720|24.964792857142857142857142861|38.972764285714285714285714286|89.33677714285714285714285715
11947|Vegetables and Vegetable Products|Pickles, cucumber, dill, reduced sodium|0.1428571428571428571428571429|cup, chopped or diced|143.00000000|20.428571428571428571428571435|17.16000000000|0.1021428571428571428571428572|0.0612857142857142857142857143|0.4923285714285714285714285716|7|752.30085714285714285714285720|24.964792857142857142857142861|38.972764285714285714285714286|89.33677714285714285714285715
11889|Vegetables and Vegetable Products|Turnips, cooked, boiled, drained, with salt|0.2|cup, mashed|230.00000000|46.000000000|50.60000000000|0.3266000000000|0.0368000000000|2.3276000000000|7|752.30085714285714285714285720|24.964792857142857142857142861|38.972764285714285714285714286|89.33677714285714285714285715
14090|Beverages|Beverages, Coconut water, ready-to-drink, unsweetened|3|cup|245.00000000|735.00000000|44.10000000000|1.617000000000|0|31.164000000000|7|752.30085714285714285714285720|24.964792857142857142857142861|38.972764285714285714285714286|89.33677714285714285714285715
11928|Vegetables and Vegetable Products|Tree fern, cooked, with salt|10.5|cup, chopped or diced|35.50000000|372.750000000|14.20000000000|1.0809750000000|0.2609250000000|40.1824500000000|7|752.30085714285714285714285720|24.964792857142857142857142861|38.972764285714285714285714286|89.33677714285714285714285715
11447|Vegetables and Vegetable Products|Sesbania flower, raw|0.7142857142857142857142857145|cup flowers|20.00000000|14.285714285714285714285714290|5.40000000000|0.1828571428571428571428571429|0.0057142857142857142857142857|0.9614285714285714285714285717|7|752.30085714285714285714285720|24.964792857142857142857142861|38.972764285714285714285714286|89.33677714285714285714285715
12063|Nut and Seed Products|Nuts, almonds, dry roasted, without salt added|0.3333333333333333333333333333|cup whole kernels|138.00000000|45.999999999999999999999999995|825.24000000000|9.641599999999999999999999999|24.168399999999999999999999998|9.664599999999999999999999999|8|752.70845238095238095238095247|25.973594761904761904761904764|37.792095714285714285714285721|89.48067785714285714285714286
11785|Vegetables and Vegetable Products|Gourd, dishcloth (towelgourd), cooked, boiled, drained, with salt|0.9999999999999999999999999999|cup (1" pieces)|178.00000000|177.99999999999999999999999998|96.12000000000|1.1747999999999999999999999999|0.6051999999999999999999999999|24.474999999999999999999999998|8|752.70845238095238095238095247|25.973594761904761904761904764|37.792095714285714285714285721|89.48067785714285714285714286
11829|Vegetables and Vegetable Products|Potatoes, baked, flesh, with salt|2.5|cup|30.50000000|76.250000000|28.36500000000|1.4945000000000|0.076250000000|16.4318750000000|8|752.70845238095238095238095247|25.973594761904761904761904764|37.792095714285714285714285721|89.48067785714285714285714286
11979|Vegetables and Vegetable Products|Peppers, jalapeno, raw|2.25|cup, sliced|90.00000000|202.5000000000|26.10000000000|1.84275000000000|0.74925000000000|13.1625000000000|8|752.70845238095238095238095247|25.973594761904761904761904764|37.792095714285714285714285721|89.48067785714285714285714286
16325|Legumes and Legume Products|Beans, great northern, mature seeds, cooked, boiled, with salt|0.4285714285714285714285714287|cup|177.00000000|75.857142857142857142857142880|208.86000000000|6.3189000000000000000000000019|0.3413571428571428571428571430|15.998271428571428571428571433|8|752.70845238095238095238095247|25.973594761904761904761904764|37.792095714285714285714285721|89.48067785714285714285714286
11374|Vegetables and Vegetable Products|Potatoes, canned, solids and liquids|0.2|cup, whole|300.00000000|60.000000000|132.00000000000|0.720000000000|0.0660000000000|5.9340000000000|8|752.70845238095238095238095247|25.973594761904761904761904764|37.792095714285714285714285721|89.48067785714285714285714286
11695|Vegetables and Vegetable Products|Tomatoes, orange, raw|0.7142857142857142857142857145|cup, chopped|158.00000000|112.85714285714285714285714289|25.28000000000|1.3091428571428571428571428575|0.2144285714285714285714285715|3.5888571428571428571428571439|8|752.70845238095238095238095247|25.973594761904761904761904764|37.792095714285714285714285721|89.48067785714285714285714286
11766|Vegetables and Vegetable Products|Chayote, fruit, cooked, boiled, drained, with salt|1.3333333333333333333333333332|cup (1" pieces)|160.00000000|213.33333333333333333333333331|35.20000000000|1.3226666666666666666666666665|1.0239999999999999999999999999|9.599999999999999999999999999|8|752.70845238095238095238095247|25.973594761904761904761904764|37.792095714285714285714285721|89.48067785714285714285714286
11758|Vegetables and Vegetable Products|Carrots, canned, no salt added, solids and liquids|4.0|cup slices|61.50000000|246.000000000|14.14500000000|1.4514000000000|0.3444000000000|13.1856000000000|8|752.70845238095238095238095247|25.973594761904761904761904764|37.792095714285714285714285721|89.48067785714285714285714286
11216|Vegetables and Vegetable Products|Ginger root, raw|57.0|cup slices (1" dia)|6.00000000|342.000000000|4.80000000000|6.2244000000000|2.5650000000000|60.7734000000000|9|750.12866666666666666666666673|25.772056190476190476190476193|38.591300476190476190476190481|89.95181142857142857142857143
31035|Vegetables and Vegetable Products|Vegetable juice, BOLTHOUSE FARMS, DAILY GREENS|0.3333333333333333333333333333|cup|269.00000000|89.66666666666666666666666666|83.39000000000|0.4393666666666666666666666666|0.0358666666666666666666666667|7.2898999999999999999999999993|9|750.12866666666666666666666673|25.772056190476190476190476193|38.591300476190476190476190481|89.95181142857142857142857143
12516|Nut and Seed Products|Seeds, pumpkin and squash seed kernels, roasted, with salt added|1|cup|118.00000000|118.00000000|677.32000000000|35.211200000000|57.879000000000|17.357800000000|9|750.12866666666666666666666673|25.772056190476190476190476193|38.591300476190476190476190481|89.95181142857142857142857143
11429|Vegetables and Vegetable Products|Radishes, raw|0.7142857142857142857142857145|cup slices|116.00000000|82.85714285714285714285714288|18.56000000000|0.5634285714285714285714285716|0.0828571428571428571428571429|2.8171428571428571428571428580|9|750.12866666666666666666666673|25.772056190476190476190476193|38.591300476190476190476190481|89.95181142857142857142857143
11918|Vegetables and Vegetable Products|Peppers, sweet, red, frozen, chopped, boiled, drained, without salt|57|tablespoon, chopped|11.60000000|661.20000000|1.85600000000|6.281400000000|1.190160000000|21.885720000000|9|750.12866666666666666666666673|25.772056190476190476190476193|38.591300476190476190476190481|89.95181142857142857142857143
12118|Nut and Seed Products|Nuts, coconut milk, canned (liquid expressed from grated meat and water)|0.1428571428571428571428571429|cup|226.00000000|32.285714285714285714285714295|445.22000000000|0.6521714285714285714285714288|6.8865428571428571428571428592|0.9072285714285714285714285717|9|750.12866666666666666666666673|25.772056190476190476190476193|38.591300476190476190476190481|89.95181142857142857142857143
11644|Vegetables and Vegetable Products|Squash, winter, all varieties, cooked, baked, without salt|0.4|cup, cubes|205.00000000|82.000000000|75.85000000000|0.7298000000000|0.2870000000000|7.2570000000000|9|750.12866666666666666666666673|25.772056190476190476190476193|38.591300476190476190476190481|89.95181142857142857142857143
43365|Vegetables and Vegetable Products|Tomato and vegetable juice, low sodium|11|fl oz|30.20000000|332.20000000|6.64400000000|1.99320000000|0.33220000000|15.247980000000|9|750.12866666666666666666666673|25.772056190476190476190476193|38.591300476190476190476190481|89.95181142857142857142857143
11821|Vegetables and Vegetable Products|Peppers, sweet, red, raw|1.0|cup, sliced|92.00000000|92.000000000|23.92000000000|0.9108000000000|0.276000000000|5.5476000000000|9|750.12866666666666666666666673|25.772056190476190476190476193|38.591300476190476190476190481|89.95181142857142857142857143
11523|Vegetables and Vegetable Products|Taro shoots, cooked, without salt|2|cup slices|140.00000000|280.00000000|19.60000000000|2.044000000000|0.224000000000|8.96000000000|9|750.12866666666666666666666673|25.772056190476190476190476193|38.591300476190476190476190481|89.95181142857142857142857143
12176|Nut and Seed Products|Nuts, coconut milk, frozen (liquid expressed from grated meat and water)|0.4285714285714285714285714287|cup|240.00000000|102.85714285714285714285714289|484.80000000000|1.6560000000000000000000000005|21.394285714285714285714285721|5.7394285714285714285714285732|10|751.86035714285714285714285726|25.470014285714285714285714287|38.989738095238095238095238105|88.41391785714285714285714286
11658|Vegetables and Vegetable Products|Spinach souffle|0.7142857142857142857142857145|cup|136.00000000|97.14285714285714285714285717|233.92000000000|7.6645714285714285714285714309|12.580000000000000000000000004|5.7314285714285714285714285731|10|751.86035714285714285714285726|25.470014285714285714285714287|38.989738095238095238095238105|88.41391785714285714285714286
16136|Legumes and Legume Products|Winged beans, mature seeds, cooked, boiled, without salt|0.3333333333333333333333333333|cup|172.00000000|57.333333333333333333333333328|252.84000000000|6.0887999999999999999999999994|3.3482666666666666666666666663|8.565599999999999999999999999|10|751.86035714285714285714285726|25.470014285714285714285714287|38.989738095238095238095238105|88.41391785714285714285714286
11424|Vegetables and Vegetable Products|Pumpkin, canned, without salt|1.5|cup|245.00000000|367.500000000|83.30000000000|4.042500000000|1.0290000000000|29.7307500000000|10|751.86035714285714285714285726|25.470014285714285714285714287|38.989738095238095238095238105|88.41391785714285714285714286
11354|Vegetables and Vegetable Products|Potatoes, white, flesh and skin, raw|1.6666666666666666666666666665|cup, diced|37.50000000|62.499999999999999999999999994|25.87500000000|1.0499999999999999999999999999|0.0625000000000000000000000000|9.818749999999999999999999999|10|751.86035714285714285714285726|25.470014285714285714285714287|38.989738095238095238095238105|88.41391785714285714285714286
11952|Vegetables and Vegetable Products|Radicchio, raw|5.00|cup, shredded|40.00000000|200.0000000000|9.20000000000|2.86000000000000|0.50000000000000|8.96000000000000|10|751.86035714285714285714285726|25.470014285714285714285714287|38.989738095238095238095238105|88.41391785714285714285714286
11228|Vegetables and Vegetable Products|Jew's ear, (pepeao), raw|1.25|cup slices|99.00000000|123.7500000000|24.75000000000|0.59400000000000|0.04950000000000|8.35312500000000|10|751.86035714285714285714285726|25.470014285714285714285714287|38.989738095238095238095238105|88.41391785714285714285714286
11219|Vegetables and Vegetable Products|Gourd, white-flowered (calabash), cooked, boiled, drained, without salt|0.75|cup (1" cubes)|146.00000000|109.5000000000|21.90000000000|0.6570000000000|0.02190000000000|4.04055000000000|10|751.86035714285714285714285726|25.470014285714285714285714287|38.989738095238095238095238105|88.41391785714285714285714286
11226|Vegetables and Vegetable Products|Jerusalem-artichokes, raw|0.2857142857142857142857142858|cup slices|150.00000000|42.857142857142857142857142870|109.50000000000|0.8571428571428571428571428574|0.0042857142857142857142857143|7.4742857142857142857142857165|10|751.86035714285714285714285726|25.470014285714285714285714287|38.989738095238095238095238105|88.41391785714285714285714286
